(export (version D)
  (design
    (source /home/tuxihc/Hacklab/Badge/project.sch)
    (date "mar 23 abr 2019 19:24:35 -04")
    (tool "Eeschema 4.0.7+dfsg1-1~bpo8+1")
    (sheet (number 1) (name /) (tstamps /)
      (title_block
        (title)
        (company)
        (rev)
        (date)
        (source project.sch)
        (comment (number 1) (value ""))
        (comment (number 2) (value ""))
        (comment (number 3) (value ""))
        (comment (number 4) (value "")))))
  (components
    (comp (ref D1)
      (value WS2812B)
      (footprint LEDs:LED_WS2812B-PLCC4)
      (libsource (lib LED) (part WS2812B))
      (sheetpath (names /) (tstamps /))
      (tstamp 5CBE7D8C))
    (comp (ref C2)
      (value C)
      (footprint Capacitors_SMD:C_0805_HandSoldering)
      (libsource (lib device) (part C))
      (sheetpath (names /) (tstamps /))
      (tstamp 5CBE7FE1))
    (comp (ref U1)
      (value ATTINY85-20PU)
      (footprint Housings_DIP:DIP-8_W9.53mm_SMD)
      (libsource (lib atmel) (part ATTINY85-20PU))
      (sheetpath (names /) (tstamps /))
      (tstamp 5CBE83D9))
    (comp (ref C1)
      (value C)
      (footprint Capacitors_SMD:C_0805_HandSoldering)
      (libsource (lib device) (part C))
      (sheetpath (names /) (tstamps /))
      (tstamp 5CBE8467))
    (comp (ref J1)
      (value Conn_01x02)
      (footprint Pin_Headers:Pin_Header_Straight_1x02_Pitch2.54mm)
      (libsource (lib conn) (part Conn_01x02))
      (sheetpath (names /) (tstamps /))
      (tstamp 5CBE8583))
    (comp (ref SW1)
      (value SW_Push)
      (footprint Buttons_Switches_SMD:SW_SPST_TL3342)
      (libsource (lib switches) (part SW_Push))
      (sheetpath (names /) (tstamps /))
      (tstamp 5CBE862E))
    (comp (ref C5)
      (value C)
      (footprint Capacitors_SMD:C_0805_HandSoldering)
      (libsource (lib device) (part C))
      (sheetpath (names /) (tstamps /))
      (tstamp 5CBE87A5))
    (comp (ref R2)
      (value R)
      (footprint Resistors_SMD:R_0805_HandSoldering)
      (libsource (lib device) (part R))
      (sheetpath (names /) (tstamps /))
      (tstamp 5CBEC88F))
    (comp (ref J2)
      (value Conn_01x06)
      (footprint Pin_Headers:Pin_Header_Straight_1x06_Pitch2.54mm)
      (libsource (lib conn) (part Conn_01x06))
      (sheetpath (names /) (tstamps /))
      (tstamp 5CBFA04B)))
  (libparts
    (libpart (lib atmel) (part ATTINY25-20PU)
      (aliases
        (alias ATTINY45-20PU)
        (alias ATTINY85-20PU))
      (description "PDIP8, 2k Flash, 128B SRAM, 128B EEPROM, Debug Wire")
      (docs http://www.atmel.com/images/atmel-2586-avr-8-bit-microcontroller-attiny25-attiny45-attiny85_datasheet.pdf)
      (fields
        (field (name Reference) U)
        (field (name Value) ATTINY25-20PU)
        (field (name Footprint) Housings_DIP:DIP-8_W7.62mm))
      (pins
        (pin (num 1) (name "PB5(~RESET~/dW/ADC0/PCINT5)") (type BiDi))
        (pin (num 2) (name "PB3(XTAL1/CLKI/OC1B/ADC3/PCINT3)") (type BiDi))
        (pin (num 3) (name "PB4(XTAL2/CLKO/OC1B/ADC2/PCINT4)") (type BiDi))
        (pin (num 4) (name GND) (type power_in))
        (pin (num 5) (name "PB0(MOSI/DI/SDA/AIN0/OC0A/OC1A/AREF/PCINT0)") (type BiDi))
        (pin (num 6) (name "PB1(MISO/DO/AIN1/OC0B/OC1A/PCINT1)") (type BiDi))
        (pin (num 7) (name "PB2(SCK/USCK/SCL/T0/INT0/ADC1/PCINT2)") (type BiDi))
        (pin (num 8) (name VCC) (type power_in))))
    (libpart (lib device) (part C)
      (description "Unpolarized capacitor")
      (footprints
        (fp C_*))
      (fields
        (field (name Reference) C)
        (field (name Value) C))
      (pins
        (pin (num 1) (name ~) (type passive))
        (pin (num 2) (name ~) (type passive))))
    (libpart (lib conn) (part Conn_01x02)
      (description "Generic connector, single row, 01x02")
      (docs ~)
      (footprints
        (fp Connector*:*_??x*mm*)
        (fp Connector*:*1x??x*mm*)
        (fp Pin?Header?Straight?1X*)
        (fp Pin?Header?Angled?1X*)
        (fp Socket?Strip?Straight?1X*)
        (fp Socket?Strip?Angled?1X*))
      (fields
        (field (name Reference) J)
        (field (name Value) Conn_01x02))
      (pins
        (pin (num 1) (name Pin_1) (type passive))
        (pin (num 2) (name Pin_2) (type passive))))
    (libpart (lib conn) (part Conn_01x06)
      (description "Generic connector, single row, 01x06")
      (docs ~)
      (footprints
        (fp Connector*:*_??x*mm*)
        (fp Connector*:*1x??x*mm*)
        (fp Pin?Header?Straight?1X*)
        (fp Pin?Header?Angled?1X*)
        (fp Socket?Strip?Straight?1X*)
        (fp Socket?Strip?Angled?1X*))
      (fields
        (field (name Reference) J)
        (field (name Value) Conn_01x06))
      (pins
        (pin (num 1) (name Pin_1) (type passive))
        (pin (num 2) (name Pin_2) (type passive))
        (pin (num 3) (name Pin_3) (type passive))
        (pin (num 4) (name Pin_4) (type passive))
        (pin (num 5) (name Pin_5) (type passive))
        (pin (num 6) (name Pin_6) (type passive))))
    (libpart (lib device) (part R)
      (description Resistor)
      (footprints
        (fp R_*)
        (fp R_*))
      (fields
        (field (name Reference) R)
        (field (name Value) R))
      (pins
        (pin (num 1) (name ~) (type passive))
        (pin (num 2) (name ~) (type passive))))
    (libpart (lib switches) (part SW_Push)
      (description "Push button switch, generic, two pins")
      (fields
        (field (name Reference) SW)
        (field (name Value) SW_Push))
      (pins
        (pin (num 1) (name 1) (type passive))
        (pin (num 2) (name 2) (type passive))))
    (libpart (lib LED) (part WS2812B)
      (footprints
        (fp LED*WS2812*PLCC*5.0x5.0mm*P3.2mm*))
      (fields
        (field (name Reference) D)
        (field (name Value) WS2812B)
        (field (name Footprint) LED_SMD:LED_WS2812B_PLCC4_5.0x5.0mm_P3.2mm))
      (pins
        (pin (num 1) (name VDD) (type power_in))
        (pin (num 2) (name DOUT) (type output))
        (pin (num 3) (name VSS) (type power_in))
        (pin (num 4) (name DIN) (type input)))))
  (libraries
    (library (logical conn)
      (uri /usr/share/kicad/library/conn.lib))
    (library (logical switches)
      (uri /usr/share/kicad/library/switches.lib))
    (library (logical device)
      (uri /usr/share/kicad/library/device.lib))
    (library (logical atmel)
      (uri /usr/share/kicad/library/atmel.lib))
    (library (logical LED)
      (uri /home/tuxihc/Hacklab/Badge/LED.lib)))
  (nets
    (net (code 1) (name RST)
      (node (ref J2) (pin 5))
      (node (ref U1) (pin 1))
      (node (ref R2) (pin 2)))
    (net (code 2) (name SDI)
      (node (ref J2) (pin 4))
      (node (ref U1) (pin 5)))
    (net (code 3) (name SDO)
      (node (ref J2) (pin 3))
      (node (ref U1) (pin 6)))
    (net (code 4) (name SCK)
      (node (ref U1) (pin 7))
      (node (ref J2) (pin 2)))
    (net (code 5) (name VCC)
      (node (ref J1) (pin 1))
      (node (ref R2) (pin 1))
      (node (ref C2) (pin 1))
      (node (ref C1) (pin 1))
      (node (ref U1) (pin 8))
      (node (ref D1) (pin 1))
      (node (ref J2) (pin 1)))
    (net (code 6) (name GND)
      (node (ref D1) (pin 3))
      (node (ref J2) (pin 6))
      (node (ref C2) (pin 2))
      (node (ref C5) (pin 2))
      (node (ref U1) (pin 4))
      (node (ref SW1) (pin 2))
      (node (ref C1) (pin 2))
      (node (ref J1) (pin 2)))
    (net (code 7) (name BT)
      (node (ref C5) (pin 1))
      (node (ref SW1) (pin 1))
      (node (ref U1) (pin 2)))
    (net (code 8) (name D0)
      (node (ref U1) (pin 3))
      (node (ref D1) (pin 4)))
    (net (code 9) (name "Net-(D1-Pad2)")
      (node (ref D1) (pin 2)))))