EESchema Schematic File Version 2
LIBS:power
LIBS:device
LIBS:switches
LIBS:relays
LIBS:motors
LIBS:transistors
LIBS:conn
LIBS:linear
LIBS:regul
LIBS:74xx
LIBS:cmos4000
LIBS:adc-dac
LIBS:memory
LIBS:xilinx
LIBS:microcontrollers
LIBS:dsp
LIBS:microchip
LIBS:analog_switches
LIBS:motorola
LIBS:texas
LIBS:intel
LIBS:audio
LIBS:interface
LIBS:digital-audio
LIBS:philips
LIBS:display
LIBS:cypress
LIBS:siliconi
LIBS:opto
LIBS:atmel
LIBS:contrib
LIBS:valves
LIBS:mylibs
LIBS:leds
LIBS:LED
LIBS:project-cache
EELAYER 25 0
EELAYER END
$Descr A4 11693 8268
encoding utf-8
Sheet 1 1
Title ""
Date ""
Rev ""
Comp ""
Comment1 ""
Comment2 ""
Comment3 ""
Comment4 ""
$EndDescr
$Comp
L WS2812B D1
U 1 1 5CBE7D8C
P 4500 2450
F 0 "D1" H 4700 2675 50  0000 R BNN
F 1 "WS2812B" H 4550 2225 50  0000 L TNN
F 2 "LEDs:LED_WS2812B-PLCC4" H 4550 2150 50  0001 L TNN
F 3 "" H 4600 2075 50  0001 L TNN
	1    4500 2450
	1    0    0    -1  
$EndComp
$Comp
L C C2
U 1 1 5CBE7FE1
P 3800 2450
F 0 "C2" H 3825 2550 50  0000 L CNN
F 1 "C" H 3825 2350 50  0000 L CNN
F 2 "Capacitors_SMD:C_0805_HandSoldering" H 3838 2300 50  0001 C CNN
F 3 "" H 3800 2450 50  0001 C CNN
	1    3800 2450
	1    0    0    -1  
$EndComp
$Comp
L ATTINY85-20PU U1
U 1 1 5CBE83D9
P 4250 4350
F 0 "U1" H 3100 4750 50  0000 C CNN
F 1 "ATTINY85-20PU" H 5250 3950 50  0000 C CNN
F 2 "Housings_DIP:DIP-8_W9.53mm_SMD" H 5250 4350 50  0001 C CIN
F 3 "" H 4250 4350 50  0001 C CNN
	1    4250 4350
	-1   0    0    -1  
$EndComp
$Comp
L C C1
U 1 1 5CBE8467
P 2700 4350
F 0 "C1" H 2725 4450 50  0000 L CNN
F 1 "C" H 2725 4250 50  0000 L CNN
F 2 "Capacitors_SMD:C_0805_HandSoldering" H 2738 4200 50  0001 C CNN
F 3 "" H 2700 4350 50  0001 C CNN
	1    2700 4350
	1    0    0    -1  
$EndComp
$Comp
L Conn_01x02 J1
U 1 1 5CBE8583
P 2250 4100
F 0 "J1" H 2250 4200 50  0000 C CNN
F 1 "Conn_01x02" H 2250 3900 50  0001 C CNN
F 2 "Pin_Headers:Pin_Header_Straight_1x02_Pitch2.54mm" H 2250 4100 50  0001 C CNN
F 3 "" H 2250 4100 50  0001 C CNN
	1    2250 4100
	-1   0    0    -1  
$EndComp
$Comp
L SW_Push SW1
U 1 1 5CBE862E
P 7250 3800
F 0 "SW1" H 7300 3900 50  0000 L CNN
F 1 "SW_Push" H 7250 3740 50  0001 C CNN
F 2 "Buttons_Switches_SMD:SW_SPST_TL3342" H 7250 4000 50  0001 C CNN
F 3 "" H 7250 4000 50  0001 C CNN
	1    7250 3800
	1    0    0    -1  
$EndComp
$Comp
L C C5
U 1 1 5CBE87A5
P 6950 4050
F 0 "C5" H 6975 4150 50  0000 L CNN
F 1 "C" H 6975 3950 50  0000 L CNN
F 2 "Capacitors_SMD:C_0805_HandSoldering" H 6988 3900 50  0001 C CNN
F 3 "" H 6950 4050 50  0001 C CNN
	1    6950 4050
	1    0    0    -1  
$EndComp
Wire Wire Line
	2450 4100 2900 4100
Wire Wire Line
	2450 4600 2900 4600
Wire Wire Line
	2700 4500 2700 4750
$Comp
L GND #PWR01
U 1 1 5CBE8B6A
P 2700 4750
F 0 "#PWR01" H 2700 4500 50  0001 C CNN
F 1 "GND" H 2700 4600 50  0000 C CNN
F 2 "" H 2700 4750 50  0001 C CNN
F 3 "" H 2700 4750 50  0001 C CNN
	1    2700 4750
	1    0    0    -1  
$EndComp
Connection ~ 2700 4600
Text GLabel 2850 3700 2    60   Input ~ 0
VCC
Wire Wire Line
	2850 3700 2700 3700
Wire Wire Line
	2700 3700 2700 4200
Connection ~ 2700 4100
Text GLabel 3750 2150 0    60   Input ~ 0
VCC
Text GLabel 4150 2450 0    60   Input ~ 0
D0
Wire Wire Line
	4150 2450 4200 2450
Wire Wire Line
	3800 2600 3800 2800
Wire Wire Line
	3750 2150 4500 2150
Wire Wire Line
	3800 2150 3800 2300
Connection ~ 3800 2150
$Comp
L GND #PWR02
U 1 1 5CBE9464
P 3800 2800
F 0 "#PWR02" H 3800 2550 50  0001 C CNN
F 1 "GND" H 3800 2650 50  0000 C CNN
F 2 "" H 3800 2800 50  0001 C CNN
F 3 "" H 3800 2800 50  0001 C CNN
	1    3800 2800
	1    0    0    -1  
$EndComp
Connection ~ 3800 2750
Wire Wire Line
	4500 2750 3800 2750
Text GLabel 5700 4500 2    60   Input ~ 0
D0
$Comp
L GND #PWR03
U 1 1 5CBEAAA8
P 6950 4300
F 0 "#PWR03" H 6950 4050 50  0001 C CNN
F 1 "GND" H 6950 4150 50  0000 C CNN
F 2 "" H 6950 4300 50  0001 C CNN
F 3 "" H 6950 4300 50  0001 C CNN
	1    6950 4300
	1    0    0    -1  
$EndComp
Wire Wire Line
	6950 4200 6950 4300
Wire Wire Line
	6950 4250 7450 4250
Connection ~ 6950 4250
Text GLabel 6850 3800 0    60   Input ~ 0
BT
Wire Wire Line
	7450 4250 7450 3800
Text GLabel 5700 4400 2    60   Input ~ 0
BT
Text GLabel 8100 3900 0    60   Input ~ 0
SCK
Text GLabel 8100 4000 0    60   Input ~ 0
SDO
Text GLabel 8100 4100 0    60   Input ~ 0
SDI
Text GLabel 8100 4200 0    60   Input ~ 0
RST
$Comp
L GND #PWR04
U 1 1 5CBEBB01
P 8700 4350
F 0 "#PWR04" H 8700 4100 50  0001 C CNN
F 1 "GND" H 8700 4200 50  0000 C CNN
F 2 "" H 8700 4350 50  0001 C CNN
F 3 "" H 8700 4350 50  0001 C CNN
	1    8700 4350
	1    0    0    -1  
$EndComp
Wire Wire Line
	8100 3800 8200 3800
Wire Wire Line
	8200 3800 8200 3700
Wire Wire Line
	8100 3900 8300 3900
Wire Wire Line
	8300 3900 8300 3700
Wire Wire Line
	8100 4000 8400 4000
Wire Wire Line
	8400 4000 8400 3700
Wire Wire Line
	8100 4100 8500 4100
Wire Wire Line
	8500 4100 8500 3700
Wire Wire Line
	8600 4200 8600 3700
Text GLabel 5700 4300 2    60   Input ~ 0
SCK
Text GLabel 5700 4200 2    60   Input ~ 0
SDO
Text GLabel 5700 4100 2    60   Input ~ 0
SDI
Text GLabel 5700 4600 2    60   Input ~ 0
RST
$Comp
L R R2
U 1 1 5CBEC88F
P 7100 4850
F 0 "R2" V 7180 4850 50  0000 C CNN
F 1 "R" V 7100 4850 50  0000 C CNN
F 2 "Resistors_SMD:R_0805_HandSoldering" V 7030 4850 50  0001 C CNN
F 3 "" H 7100 4850 50  0001 C CNN
	1    7100 4850
	0    1    1    0   
$EndComp
Text GLabel 6850 4850 0    60   Input ~ 0
RST
Text GLabel 7350 4850 2    60   Input ~ 0
VCC
Wire Wire Line
	6850 4850 6950 4850
Wire Wire Line
	7250 4850 7350 4850
Wire Wire Line
	5600 4100 5700 4100
Wire Wire Line
	5600 4200 5700 4200
Wire Wire Line
	5600 4300 5700 4300
Wire Wire Line
	5600 4400 5700 4400
Wire Wire Line
	5600 4500 5700 4500
Wire Wire Line
	5600 4600 5700 4600
Wire Wire Line
	2450 4600 2450 4200
Wire Wire Line
	6850 3800 7050 3800
Wire Wire Line
	6950 3900 6950 3800
Connection ~ 6950 3800
Text GLabel 8100 3800 0    60   Input ~ 0
VCC
$Comp
L Conn_01x06 J2
U 1 1 5CBFA04B
P 8400 3500
F 0 "J2" H 8400 3800 50  0000 C CNN
F 1 "Conn_01x06" H 8400 3100 50  0001 C CNN
F 2 "Pin_Headers:Pin_Header_Straight_1x06_Pitch2.54mm" H 8400 3500 50  0001 C CNN
F 3 "" H 8400 3500 50  0001 C CNN
	1    8400 3500
	0    -1   -1   0   
$EndComp
Wire Wire Line
	8100 4200 8600 4200
Wire Wire Line
	8700 3700 8700 4350
$EndSCHEMATC
