(kicad_pcb (version 4) (host pcbnew 4.0.7+dfsg1-1~bpo8+1)

  (general
    (links 23)
    (no_connects 0)
    (area 111.76 104.14 138.430001 129.540001)
    (thickness 1.6)
    (drawings 4)
    (tracks 34)
    (zones 0)
    (modules 10)
    (nets 9)
  )

  (page A4)
  (layers
    (0 F.Cu signal)
    (31 B.Cu signal)
    (32 B.Adhes user)
    (33 F.Adhes user)
    (34 B.Paste user)
    (35 F.Paste user)
    (36 B.SilkS user)
    (37 F.SilkS user)
    (38 B.Mask user hide)
    (39 F.Mask user hide)
    (40 Dwgs.User user)
    (41 Cmts.User user)
    (42 Eco1.User user)
    (43 Eco2.User user)
    (44 Edge.Cuts user)
    (45 Margin user)
    (46 B.CrtYd user)
    (47 F.CrtYd user)
    (48 B.Fab user)
    (49 F.Fab user)
  )

  (setup
    (last_trace_width 0.635)
    (trace_clearance 0.2286)
    (zone_clearance 0.508)
    (zone_45_only no)
    (trace_min 0.2)
    (segment_width 0.2)
    (edge_width 0.15)
    (via_size 1.7)
    (via_drill 1)
    (via_min_size 0.4)
    (via_min_drill 0.3)
    (uvia_size 0.3)
    (uvia_drill 0.1)
    (uvias_allowed no)
    (uvia_min_size 0)
    (uvia_min_drill 0)
    (pcb_text_width 0.3)
    (pcb_text_size 1.5 1.5)
    (mod_edge_width 0.15)
    (mod_text_size 1 1)
    (mod_text_width 0.15)
    (pad_size 2 2)
    (pad_drill 1)
    (pad_to_mask_clearance 0.2)
    (aux_axis_origin 0 0)
    (visible_elements FFFCFF1F)
    (pcbplotparams
      (layerselection 0x00030_80000001)
      (usegerberextensions false)
      (excludeedgelayer true)
      (linewidth 0.050000)
      (plotframeref false)
      (viasonmask false)
      (mode 1)
      (useauxorigin false)
      (hpglpennumber 1)
      (hpglpenspeed 20)
      (hpglpendiameter 15)
      (hpglpenoverlay 2)
      (psnegative false)
      (psa4output false)
      (plotreference true)
      (plotvalue true)
      (plotinvisibletext false)
      (padsonsilk false)
      (subtractmaskfromsilk false)
      (outputformat 1)
      (mirror false)
      (drillshape 1)
      (scaleselection 1)
      (outputdirectory ""))
  )

  (net 0 "")
  (net 1 VCC)
  (net 2 GND)
  (net 3 BT)
  (net 4 D0)
  (net 5 SCK)
  (net 6 SDO)
  (net 7 SDI)
  (net 8 RST)

  (net_class Default "Esta es la clase de red por defecto."
    (clearance 0.2286)
    (trace_width 0.635)
    (via_dia 1.7)
    (via_drill 1)
    (uvia_dia 0.3)
    (uvia_drill 0.1)
    (add_net BT)
    (add_net D0)
    (add_net GND)
    (add_net RST)
    (add_net SCK)
    (add_net SDI)
    (add_net SDO)
  )

  (net_class W1 ""
    (clearance 0.2286)
    (trace_width 0.762)
    (via_dia 1.7)
    (via_drill 1)
    (uvia_dia 0.3)
    (uvia_drill 0.1)
    (add_net VCC)
  )

  (module Pin_Headers:Pin_Header_Straight_1x02_Pitch2.54mm (layer F.Cu) (tedit 5CBF9B37) (tstamp 5CBE90FA)
    (at 118.11 120.65 270)
    (descr "Through hole straight pin header, 1x02, 2.54mm pitch, single row")
    (tags "Through hole pin header THT 1x02 2.54mm single row")
    (path /5CBE8583)
    (fp_text reference J1 (at 0 -2.33 270) (layer F.SilkS)
      (effects (font (size 1 1) (thickness 0.15)))
    )
    (fp_text value Conn_01x02 (at 0 4.87 270) (layer F.Fab)
      (effects (font (size 1 1) (thickness 0.15)))
    )
    (fp_line (start -0.635 -1.27) (end 1.27 -1.27) (layer F.Fab) (width 0.1))
    (fp_line (start 1.27 -1.27) (end 1.27 3.81) (layer F.Fab) (width 0.1))
    (fp_line (start 1.27 3.81) (end -1.27 3.81) (layer F.Fab) (width 0.1))
    (fp_line (start -1.27 3.81) (end -1.27 -0.635) (layer F.Fab) (width 0.1))
    (fp_line (start -1.27 -0.635) (end -0.635 -1.27) (layer F.Fab) (width 0.1))
    (fp_line (start -1.33 3.87) (end 1.33 3.87) (layer F.SilkS) (width 0.12))
    (fp_line (start -1.33 1.27) (end -1.33 3.87) (layer F.SilkS) (width 0.12))
    (fp_line (start 1.33 1.27) (end 1.33 3.87) (layer F.SilkS) (width 0.12))
    (fp_line (start -1.33 1.27) (end 1.33 1.27) (layer F.SilkS) (width 0.12))
    (fp_line (start -1.33 0) (end -1.33 -1.33) (layer F.SilkS) (width 0.12))
    (fp_line (start -1.33 -1.33) (end 0 -1.33) (layer F.SilkS) (width 0.12))
    (fp_line (start -1.8 -1.8) (end -1.8 4.35) (layer F.CrtYd) (width 0.05))
    (fp_line (start -1.8 4.35) (end 1.8 4.35) (layer F.CrtYd) (width 0.05))
    (fp_line (start 1.8 4.35) (end 1.8 -1.8) (layer F.CrtYd) (width 0.05))
    (fp_line (start 1.8 -1.8) (end -1.8 -1.8) (layer F.CrtYd) (width 0.05))
    (fp_text user %R (at 0 1.27 360) (layer F.Fab)
      (effects (font (size 1 1) (thickness 0.15)))
    )
    (pad 1 thru_hole oval (at 0 0 270) (size 2 2) (drill 1) (layers *.Cu *.Mask)
      (net 1 VCC))
    (pad 2 thru_hole oval (at 0 2.54 270) (size 2 2) (drill 1) (layers *.Cu *.Mask)
      (net 2 GND))
  )

  (module LEDs:LED_WS2812B-PLCC4 (layer F.Cu) (tedit 587A6D9E) (tstamp 5CBE843E)
    (at 117.17 113.07 270)
    (descr http://www.world-semi.com/uploads/soft/150522/1-150522091P5.pdf)
    (tags "LED NeoPixel")
    (path /5CBE7D8C)
    (attr smd)
    (fp_text reference D1 (at 0 -3.5 270) (layer F.SilkS)
      (effects (font (size 1 1) (thickness 0.15)))
    )
    (fp_text value WS2812B (at 0 4 270) (layer F.Fab)
      (effects (font (size 1 1) (thickness 0.15)))
    )
    (fp_line (start 3.75 -2.85) (end -3.75 -2.85) (layer F.CrtYd) (width 0.05))
    (fp_line (start 3.75 2.85) (end 3.75 -2.85) (layer F.CrtYd) (width 0.05))
    (fp_line (start -3.75 2.85) (end 3.75 2.85) (layer F.CrtYd) (width 0.05))
    (fp_line (start -3.75 -2.85) (end -3.75 2.85) (layer F.CrtYd) (width 0.05))
    (fp_line (start 2.5 1.5) (end 1.5 2.5) (layer F.Fab) (width 0.1))
    (fp_line (start -2.5 -2.5) (end -2.5 2.5) (layer F.Fab) (width 0.1))
    (fp_line (start -2.5 2.5) (end 2.5 2.5) (layer F.Fab) (width 0.1))
    (fp_line (start 2.5 2.5) (end 2.5 -2.5) (layer F.Fab) (width 0.1))
    (fp_line (start 2.5 -2.5) (end -2.5 -2.5) (layer F.Fab) (width 0.1))
    (fp_line (start -3.5 -2.6) (end 3.5 -2.6) (layer F.SilkS) (width 0.12))
    (fp_line (start -3.5 2.6) (end 3.5 2.6) (layer F.SilkS) (width 0.12))
    (fp_line (start 3.5 2.6) (end 3.5 1.6) (layer F.SilkS) (width 0.12))
    (fp_circle (center 0 0) (end 0 -2) (layer F.Fab) (width 0.1))
    (pad 3 smd rect (at 2.5 1.6 270) (size 1.6 1) (layers F.Cu F.Paste F.Mask)
      (net 2 GND))
    (pad 4 smd rect (at 2.5 -1.6 270) (size 1.6 1) (layers F.Cu F.Paste F.Mask)
      (net 4 D0))
    (pad 2 smd rect (at -2.5 1.6 270) (size 1.6 1) (layers F.Cu F.Paste F.Mask))
    (pad 1 smd rect (at -2.5 -1.6 270) (size 1.6 1) (layers F.Cu F.Paste F.Mask)
      (net 1 VCC))
    (model ${KISYS3DMOD}/LEDs.3dshapes/LED_WS2812B-PLCC4.wrl
      (at (xyz 0 0 0))
      (scale (xyz 0.39 0.39 0.39))
      (rotate (xyz 0 0 180))
    )
  )

  (module Pin_Headers:Pin_Header_Straight_1x02_Pitch2.54mm (layer F.Cu) (tedit 5CBF9B62) (tstamp 5CBE8454)
    (at 118.11 124.46 270)
    (descr "Through hole straight pin header, 1x02, 2.54mm pitch, single row")
    (tags "Through hole pin header THT 1x02 2.54mm single row")
    (path /5CBE8583)
    (fp_text reference J1 (at 0 -2.33 270) (layer F.SilkS)
      (effects (font (size 1 1) (thickness 0.15)))
    )
    (fp_text value Conn_01x02 (at 0 4.87 270) (layer F.Fab)
      (effects (font (size 1 1) (thickness 0.15)))
    )
    (fp_line (start -0.635 -1.27) (end 1.27 -1.27) (layer F.Fab) (width 0.1))
    (fp_line (start 1.27 -1.27) (end 1.27 3.81) (layer F.Fab) (width 0.1))
    (fp_line (start 1.27 3.81) (end -1.27 3.81) (layer F.Fab) (width 0.1))
    (fp_line (start -1.27 3.81) (end -1.27 -0.635) (layer F.Fab) (width 0.1))
    (fp_line (start -1.27 -0.635) (end -0.635 -1.27) (layer F.Fab) (width 0.1))
    (fp_line (start -1.33 3.87) (end 1.33 3.87) (layer F.SilkS) (width 0.12))
    (fp_line (start -1.33 1.27) (end -1.33 3.87) (layer F.SilkS) (width 0.12))
    (fp_line (start 1.33 1.27) (end 1.33 3.87) (layer F.SilkS) (width 0.12))
    (fp_line (start -1.33 1.27) (end 1.33 1.27) (layer F.SilkS) (width 0.12))
    (fp_line (start -1.33 0) (end -1.33 -1.33) (layer F.SilkS) (width 0.12))
    (fp_line (start -1.33 -1.33) (end 0 -1.33) (layer F.SilkS) (width 0.12))
    (fp_line (start -1.8 -1.8) (end -1.8 4.35) (layer F.CrtYd) (width 0.05))
    (fp_line (start -1.8 4.35) (end 1.8 4.35) (layer F.CrtYd) (width 0.05))
    (fp_line (start 1.8 4.35) (end 1.8 -1.8) (layer F.CrtYd) (width 0.05))
    (fp_line (start 1.8 -1.8) (end -1.8 -1.8) (layer F.CrtYd) (width 0.05))
    (fp_text user %R (at 0 1.27 360) (layer F.Fab)
      (effects (font (size 1 1) (thickness 0.15)))
    )
    (pad "" np_thru_hole oval (at 0 0 270) (size 1.5 1.5) (drill 1) (layers *.Cu *.Mask))
    (pad "" np_thru_hole oval (at 0 2.54 270) (size 1.5 1.5) (drill 1) (layers *.Cu *.Mask))
  )

  (module Buttons_Switches_SMD:SW_SPST_TL3342 (layer F.Cu) (tedit 58724C2D) (tstamp 5CBE8471)
    (at 125.095 123.19)
    (descr "Low-profile SMD Tactile Switch, https://www.e-switch.com/system/asset/product_line/data_sheet/165/TL3342.pdf")
    (tags "SPST Tactile Switch")
    (path /5CBE862E)
    (attr smd)
    (fp_text reference SW1 (at 0 -3.75) (layer F.SilkS)
      (effects (font (size 1 1) (thickness 0.15)))
    )
    (fp_text value SW_Push (at 0 3.75) (layer F.Fab)
      (effects (font (size 1 1) (thickness 0.15)))
    )
    (fp_text user %R (at 0 -3.75) (layer F.Fab)
      (effects (font (size 1 1) (thickness 0.15)))
    )
    (fp_line (start 3.2 2.1) (end 3.2 1.6) (layer F.Fab) (width 0.1))
    (fp_line (start 3.2 -2.1) (end 3.2 -1.6) (layer F.Fab) (width 0.1))
    (fp_line (start -3.2 2.1) (end -3.2 1.6) (layer F.Fab) (width 0.1))
    (fp_line (start -3.2 -2.1) (end -3.2 -1.6) (layer F.Fab) (width 0.1))
    (fp_line (start 2.7 -2.1) (end 2.7 -1.6) (layer F.Fab) (width 0.1))
    (fp_line (start 1.7 -2.1) (end 3.2 -2.1) (layer F.Fab) (width 0.1))
    (fp_line (start 3.2 -1.6) (end 2.2 -1.6) (layer F.Fab) (width 0.1))
    (fp_line (start -2.7 -2.1) (end -2.7 -1.6) (layer F.Fab) (width 0.1))
    (fp_line (start -1.7 -2.1) (end -3.2 -2.1) (layer F.Fab) (width 0.1))
    (fp_line (start -3.2 -1.6) (end -2.2 -1.6) (layer F.Fab) (width 0.1))
    (fp_line (start -2.7 2.1) (end -2.7 1.6) (layer F.Fab) (width 0.1))
    (fp_line (start -3.2 1.6) (end -2.2 1.6) (layer F.Fab) (width 0.1))
    (fp_line (start -1.7 2.1) (end -3.2 2.1) (layer F.Fab) (width 0.1))
    (fp_line (start 1.7 2.1) (end 3.2 2.1) (layer F.Fab) (width 0.1))
    (fp_line (start 2.7 2.1) (end 2.7 1.6) (layer F.Fab) (width 0.1))
    (fp_line (start 3.2 1.6) (end 2.2 1.6) (layer F.Fab) (width 0.1))
    (fp_line (start -1.7 2.3) (end -1.25 2.75) (layer F.SilkS) (width 0.12))
    (fp_line (start 1.7 2.3) (end 1.25 2.75) (layer F.SilkS) (width 0.12))
    (fp_line (start 1.7 -2.3) (end 1.25 -2.75) (layer F.SilkS) (width 0.12))
    (fp_line (start -1.7 -2.3) (end -1.25 -2.75) (layer F.SilkS) (width 0.12))
    (fp_line (start -2 -1) (end -1 -2) (layer F.Fab) (width 0.1))
    (fp_line (start -1 -2) (end 1 -2) (layer F.Fab) (width 0.1))
    (fp_line (start 1 -2) (end 2 -1) (layer F.Fab) (width 0.1))
    (fp_line (start 2 -1) (end 2 1) (layer F.Fab) (width 0.1))
    (fp_line (start 2 1) (end 1 2) (layer F.Fab) (width 0.1))
    (fp_line (start 1 2) (end -1 2) (layer F.Fab) (width 0.1))
    (fp_line (start -1 2) (end -2 1) (layer F.Fab) (width 0.1))
    (fp_line (start -2 1) (end -2 -1) (layer F.Fab) (width 0.1))
    (fp_line (start 2.75 -1) (end 2.75 1) (layer F.SilkS) (width 0.12))
    (fp_line (start -1.25 2.75) (end 1.25 2.75) (layer F.SilkS) (width 0.12))
    (fp_line (start -2.75 -1) (end -2.75 1) (layer F.SilkS) (width 0.12))
    (fp_line (start -1.25 -2.75) (end 1.25 -2.75) (layer F.SilkS) (width 0.12))
    (fp_line (start -2.6 -1.2) (end -2.6 1.2) (layer F.Fab) (width 0.1))
    (fp_line (start -2.6 1.2) (end -1.2 2.6) (layer F.Fab) (width 0.1))
    (fp_line (start -1.2 2.6) (end 1.2 2.6) (layer F.Fab) (width 0.1))
    (fp_line (start 1.2 2.6) (end 2.6 1.2) (layer F.Fab) (width 0.1))
    (fp_line (start 2.6 1.2) (end 2.6 -1.2) (layer F.Fab) (width 0.1))
    (fp_line (start 2.6 -1.2) (end 1.2 -2.6) (layer F.Fab) (width 0.1))
    (fp_line (start 1.2 -2.6) (end -1.2 -2.6) (layer F.Fab) (width 0.1))
    (fp_line (start -1.2 -2.6) (end -2.6 -1.2) (layer F.Fab) (width 0.1))
    (fp_line (start -4.25 -3) (end 4.25 -3) (layer F.CrtYd) (width 0.05))
    (fp_line (start 4.25 -3) (end 4.25 3) (layer F.CrtYd) (width 0.05))
    (fp_line (start 4.25 3) (end -4.25 3) (layer F.CrtYd) (width 0.05))
    (fp_line (start -4.25 3) (end -4.25 -3) (layer F.CrtYd) (width 0.05))
    (fp_circle (center 0 0) (end 1 0) (layer F.Fab) (width 0.1))
    (pad 1 smd rect (at -3.15 -1.9) (size 1.7 1) (layers F.Cu F.Paste F.Mask)
      (net 3 BT))
    (pad 1 smd rect (at 3.15 -1.9) (size 1.7 1) (layers F.Cu F.Paste F.Mask)
      (net 3 BT))
    (pad 2 smd rect (at -3.15 1.9) (size 1.7 1) (layers F.Cu F.Paste F.Mask)
      (net 2 GND))
    (pad 2 smd rect (at 3.15 1.9) (size 1.7 1) (layers F.Cu F.Paste F.Mask)
      (net 2 GND))
    (model /opt/kicad/modules/packages3d/Button_Switch_SMD.3dshapes/SW_SPST_TL3342.wrl
      (at (xyz 0 0 0))
      (scale (xyz 1 1 1))
      (rotate (xyz 0 0 0))
    )
  )

  (module Housings_DIP:DIP-8_W9.53mm_SMD (layer F.Cu) (tedit 58CC8E33) (tstamp 5CBF310B)
    (at 125.73 114.3)
    (descr "8-lead dip package, row spacing 9.53 mm (375 mils), SMD")
    (tags "DIL DIP PDIP 2.54mm 9.53mm 375mil SMD")
    (path /5CBE83D9)
    (attr smd)
    (fp_text reference U1 (at 0 -6.2) (layer F.SilkS)
      (effects (font (size 1 1) (thickness 0.15)))
    )
    (fp_text value ATTINY85-20PU (at 0 6.2) (layer F.Fab)
      (effects (font (size 1 1) (thickness 0.15)))
    )
    (fp_text user %R (at 0 0) (layer F.Fab)
      (effects (font (size 1 1) (thickness 0.15)))
    )
    (fp_line (start -2.175 -5.08) (end 3.175 -5.08) (layer F.Fab) (width 0.1))
    (fp_line (start 3.175 -5.08) (end 3.175 5.08) (layer F.Fab) (width 0.1))
    (fp_line (start 3.175 5.08) (end -3.175 5.08) (layer F.Fab) (width 0.1))
    (fp_line (start -3.175 5.08) (end -3.175 -4.08) (layer F.Fab) (width 0.1))
    (fp_line (start -3.175 -4.08) (end -2.175 -5.08) (layer F.Fab) (width 0.1))
    (fp_line (start -1 -5.2) (end -3.295 -5.2) (layer F.SilkS) (width 0.12))
    (fp_line (start -3.295 -5.2) (end -3.295 5.2) (layer F.SilkS) (width 0.12))
    (fp_line (start -3.295 5.2) (end 3.295 5.2) (layer F.SilkS) (width 0.12))
    (fp_line (start 3.295 5.2) (end 3.295 -5.2) (layer F.SilkS) (width 0.12))
    (fp_line (start 3.295 -5.2) (end 1 -5.2) (layer F.SilkS) (width 0.12))
    (fp_line (start -6.1 -5.4) (end -6.1 5.4) (layer F.CrtYd) (width 0.05))
    (fp_line (start -6.1 5.4) (end 6.1 5.4) (layer F.CrtYd) (width 0.05))
    (fp_line (start 6.1 5.4) (end 6.1 -5.4) (layer F.CrtYd) (width 0.05))
    (fp_line (start 6.1 -5.4) (end -6.1 -5.4) (layer F.CrtYd) (width 0.05))
    (fp_arc (start 0 -5.2) (end -1 -5.2) (angle -180) (layer F.SilkS) (width 0.12))
    (pad 1 smd rect (at -4.765 -3.81) (size 2 1.78) (layers F.Cu F.Paste F.Mask)
      (net 8 RST))
    (pad 5 smd rect (at 4.765 3.81) (size 2 1.78) (layers F.Cu F.Paste F.Mask)
      (net 7 SDI))
    (pad 2 smd rect (at -4.765 -1.27) (size 2 1.78) (layers F.Cu F.Paste F.Mask)
      (net 3 BT))
    (pad 6 smd rect (at 4.765 1.27) (size 2 1.78) (layers F.Cu F.Paste F.Mask)
      (net 6 SDO))
    (pad 3 smd rect (at -4.765 1.27) (size 2 1.78) (layers F.Cu F.Paste F.Mask)
      (net 4 D0))
    (pad 7 smd rect (at 4.765 -1.27) (size 2 1.78) (layers F.Cu F.Paste F.Mask)
      (net 5 SCK))
    (pad 4 smd rect (at -4.765 3.81) (size 2 1.78) (layers F.Cu F.Paste F.Mask)
      (net 2 GND))
    (pad 8 smd rect (at 4.765 -3.81) (size 2 1.78) (layers F.Cu F.Paste F.Mask)
      (net 1 VCC))
    (model ${KISYS3DMOD}/Housings_DIP.3dshapes/DIP-8_W9.53mm_SMD.wrl
      (at (xyz 0 0 0))
      (scale (xyz 1 1 1))
      (rotate (xyz 0 0 0))
    )
  )

  (module Capacitors_SMD:C_0805_HandSoldering (layer F.Cu) (tedit 58AA84A8) (tstamp 5CBFE488)
    (at 116.82 117.856 180)
    (descr "Capacitor SMD 0805, hand soldering")
    (tags "capacitor 0805")
    (path /5CBE8467)
    (attr smd)
    (fp_text reference C1 (at 0 -1.75 180) (layer F.SilkS)
      (effects (font (size 1 1) (thickness 0.15)))
    )
    (fp_text value C (at 0 1.75 180) (layer F.Fab)
      (effects (font (size 1 1) (thickness 0.15)))
    )
    (fp_text user %R (at 0 -1.75 180) (layer F.Fab)
      (effects (font (size 1 1) (thickness 0.15)))
    )
    (fp_line (start -1 0.62) (end -1 -0.62) (layer F.Fab) (width 0.1))
    (fp_line (start 1 0.62) (end -1 0.62) (layer F.Fab) (width 0.1))
    (fp_line (start 1 -0.62) (end 1 0.62) (layer F.Fab) (width 0.1))
    (fp_line (start -1 -0.62) (end 1 -0.62) (layer F.Fab) (width 0.1))
    (fp_line (start 0.5 -0.85) (end -0.5 -0.85) (layer F.SilkS) (width 0.12))
    (fp_line (start -0.5 0.85) (end 0.5 0.85) (layer F.SilkS) (width 0.12))
    (fp_line (start -2.25 -0.88) (end 2.25 -0.88) (layer F.CrtYd) (width 0.05))
    (fp_line (start -2.25 -0.88) (end -2.25 0.87) (layer F.CrtYd) (width 0.05))
    (fp_line (start 2.25 0.87) (end 2.25 -0.88) (layer F.CrtYd) (width 0.05))
    (fp_line (start 2.25 0.87) (end -2.25 0.87) (layer F.CrtYd) (width 0.05))
    (pad 1 smd rect (at -1.25 0 180) (size 1.5 1.25) (layers F.Cu F.Paste F.Mask)
      (net 1 VCC))
    (pad 2 smd rect (at 1.25 0 180) (size 1.5 1.25) (layers F.Cu F.Paste F.Mask)
      (net 2 GND))
    (model Capacitors_SMD.3dshapes/C_0805.wrl
      (at (xyz 0 0 0))
      (scale (xyz 1 1 1))
      (rotate (xyz 0 0 0))
    )
  )

  (module Capacitors_SMD:C_0805_HandSoldering (layer F.Cu) (tedit 58AA84A8) (tstamp 5CBFE48D)
    (at 132.08 107.95)
    (descr "Capacitor SMD 0805, hand soldering")
    (tags "capacitor 0805")
    (path /5CBE7FE1)
    (attr smd)
    (fp_text reference C2 (at 0 -1.75) (layer F.SilkS)
      (effects (font (size 1 1) (thickness 0.15)))
    )
    (fp_text value C (at 0 1.75) (layer F.Fab)
      (effects (font (size 1 1) (thickness 0.15)))
    )
    (fp_text user %R (at 0 -1.75) (layer F.Fab)
      (effects (font (size 1 1) (thickness 0.15)))
    )
    (fp_line (start -1 0.62) (end -1 -0.62) (layer F.Fab) (width 0.1))
    (fp_line (start 1 0.62) (end -1 0.62) (layer F.Fab) (width 0.1))
    (fp_line (start 1 -0.62) (end 1 0.62) (layer F.Fab) (width 0.1))
    (fp_line (start -1 -0.62) (end 1 -0.62) (layer F.Fab) (width 0.1))
    (fp_line (start 0.5 -0.85) (end -0.5 -0.85) (layer F.SilkS) (width 0.12))
    (fp_line (start -0.5 0.85) (end 0.5 0.85) (layer F.SilkS) (width 0.12))
    (fp_line (start -2.25 -0.88) (end 2.25 -0.88) (layer F.CrtYd) (width 0.05))
    (fp_line (start -2.25 -0.88) (end -2.25 0.87) (layer F.CrtYd) (width 0.05))
    (fp_line (start 2.25 0.87) (end 2.25 -0.88) (layer F.CrtYd) (width 0.05))
    (fp_line (start 2.25 0.87) (end -2.25 0.87) (layer F.CrtYd) (width 0.05))
    (pad 1 smd rect (at -1.25 0) (size 1.5 1.25) (layers F.Cu F.Paste F.Mask)
      (net 1 VCC))
    (pad 2 smd rect (at 1.25 0) (size 1.5 1.25) (layers F.Cu F.Paste F.Mask)
      (net 2 GND))
    (model Capacitors_SMD.3dshapes/C_0805.wrl
      (at (xyz 0 0 0))
      (scale (xyz 1 1 1))
      (rotate (xyz 0 0 0))
    )
  )

  (module Capacitors_SMD:C_0805_HandSoldering (layer F.Cu) (tedit 58AA84A8) (tstamp 5CBFE492)
    (at 130.81 123.17 270)
    (descr "Capacitor SMD 0805, hand soldering")
    (tags "capacitor 0805")
    (path /5CBE87A5)
    (attr smd)
    (fp_text reference C5 (at 0 -1.75 270) (layer F.SilkS)
      (effects (font (size 1 1) (thickness 0.15)))
    )
    (fp_text value C (at 0 1.75 270) (layer F.Fab)
      (effects (font (size 1 1) (thickness 0.15)))
    )
    (fp_text user %R (at 0 -1.75 270) (layer F.Fab)
      (effects (font (size 1 1) (thickness 0.15)))
    )
    (fp_line (start -1 0.62) (end -1 -0.62) (layer F.Fab) (width 0.1))
    (fp_line (start 1 0.62) (end -1 0.62) (layer F.Fab) (width 0.1))
    (fp_line (start 1 -0.62) (end 1 0.62) (layer F.Fab) (width 0.1))
    (fp_line (start -1 -0.62) (end 1 -0.62) (layer F.Fab) (width 0.1))
    (fp_line (start 0.5 -0.85) (end -0.5 -0.85) (layer F.SilkS) (width 0.12))
    (fp_line (start -0.5 0.85) (end 0.5 0.85) (layer F.SilkS) (width 0.12))
    (fp_line (start -2.25 -0.88) (end 2.25 -0.88) (layer F.CrtYd) (width 0.05))
    (fp_line (start -2.25 -0.88) (end -2.25 0.87) (layer F.CrtYd) (width 0.05))
    (fp_line (start 2.25 0.87) (end 2.25 -0.88) (layer F.CrtYd) (width 0.05))
    (fp_line (start 2.25 0.87) (end -2.25 0.87) (layer F.CrtYd) (width 0.05))
    (pad 1 smd rect (at -1.25 0 270) (size 1.5 1.25) (layers F.Cu F.Paste F.Mask)
      (net 3 BT))
    (pad 2 smd rect (at 1.25 0 270) (size 1.5 1.25) (layers F.Cu F.Paste F.Mask)
      (net 2 GND))
    (model Capacitors_SMD.3dshapes/C_0805.wrl
      (at (xyz 0 0 0))
      (scale (xyz 1 1 1))
      (rotate (xyz 0 0 0))
    )
  )

  (module Resistors_SMD:R_0805_HandSoldering (layer F.Cu) (tedit 58E0A804) (tstamp 5CBFE497)
    (at 125.73 109.554 270)
    (descr "Resistor SMD 0805, hand soldering")
    (tags "resistor 0805")
    (path /5CBEC88F)
    (attr smd)
    (fp_text reference R2 (at 0 -1.7 270) (layer F.SilkS)
      (effects (font (size 1 1) (thickness 0.15)))
    )
    (fp_text value R (at 0 1.75 270) (layer F.Fab)
      (effects (font (size 1 1) (thickness 0.15)))
    )
    (fp_text user %R (at 0 0 270) (layer F.Fab)
      (effects (font (size 0.5 0.5) (thickness 0.075)))
    )
    (fp_line (start -1 0.62) (end -1 -0.62) (layer F.Fab) (width 0.1))
    (fp_line (start 1 0.62) (end -1 0.62) (layer F.Fab) (width 0.1))
    (fp_line (start 1 -0.62) (end 1 0.62) (layer F.Fab) (width 0.1))
    (fp_line (start -1 -0.62) (end 1 -0.62) (layer F.Fab) (width 0.1))
    (fp_line (start 0.6 0.88) (end -0.6 0.88) (layer F.SilkS) (width 0.12))
    (fp_line (start -0.6 -0.88) (end 0.6 -0.88) (layer F.SilkS) (width 0.12))
    (fp_line (start -2.35 -0.9) (end 2.35 -0.9) (layer F.CrtYd) (width 0.05))
    (fp_line (start -2.35 -0.9) (end -2.35 0.9) (layer F.CrtYd) (width 0.05))
    (fp_line (start 2.35 0.9) (end 2.35 -0.9) (layer F.CrtYd) (width 0.05))
    (fp_line (start 2.35 0.9) (end -2.35 0.9) (layer F.CrtYd) (width 0.05))
    (pad 1 smd rect (at -1.35 0 270) (size 1.5 1.3) (layers F.Cu F.Paste F.Mask)
      (net 1 VCC))
    (pad 2 smd rect (at 1.35 0 270) (size 1.5 1.3) (layers F.Cu F.Paste F.Mask)
      (net 8 RST))
    (model ${KISYS3DMOD}/Resistors_SMD.3dshapes/R_0805.wrl
      (at (xyz 0 0 0))
      (scale (xyz 1 1 1))
      (rotate (xyz 0 0 0))
    )
  )

  (module Pin_Headers:Pin_Header_Straight_1x06_Pitch2.54mm (layer F.Cu) (tedit 5CBFA10E) (tstamp 5CC10756)
    (at 133.35 110.49)
    (descr "Through hole straight pin header, 1x06, 2.54mm pitch, single row")
    (tags "Through hole pin header THT 1x06 2.54mm single row")
    (path /5CBFA04B)
    (fp_text reference J2 (at 0 -2.33) (layer F.SilkS)
      (effects (font (size 1 1) (thickness 0.15)))
    )
    (fp_text value Conn_01x06 (at 0 15.03) (layer F.Fab)
      (effects (font (size 1 1) (thickness 0.15)))
    )
    (fp_line (start -0.635 -1.27) (end 1.27 -1.27) (layer F.Fab) (width 0.1))
    (fp_line (start 1.27 -1.27) (end 1.27 13.97) (layer F.Fab) (width 0.1))
    (fp_line (start 1.27 13.97) (end -1.27 13.97) (layer F.Fab) (width 0.1))
    (fp_line (start -1.27 13.97) (end -1.27 -0.635) (layer F.Fab) (width 0.1))
    (fp_line (start -1.27 -0.635) (end -0.635 -1.27) (layer F.Fab) (width 0.1))
    (fp_line (start -1.33 14.03) (end 1.33 14.03) (layer F.SilkS) (width 0.12))
    (fp_line (start -1.33 1.27) (end -1.33 14.03) (layer F.SilkS) (width 0.12))
    (fp_line (start 1.33 1.27) (end 1.33 14.03) (layer F.SilkS) (width 0.12))
    (fp_line (start -1.33 1.27) (end 1.33 1.27) (layer F.SilkS) (width 0.12))
    (fp_line (start -1.33 0) (end -1.33 -1.33) (layer F.SilkS) (width 0.12))
    (fp_line (start -1.33 -1.33) (end 0 -1.33) (layer F.SilkS) (width 0.12))
    (fp_line (start -1.8 -1.8) (end -1.8 14.5) (layer F.CrtYd) (width 0.05))
    (fp_line (start -1.8 14.5) (end 1.8 14.5) (layer F.CrtYd) (width 0.05))
    (fp_line (start 1.8 14.5) (end 1.8 -1.8) (layer F.CrtYd) (width 0.05))
    (fp_line (start 1.8 -1.8) (end -1.8 -1.8) (layer F.CrtYd) (width 0.05))
    (fp_text user %R (at 0 6.35 90) (layer F.Fab)
      (effects (font (size 1 1) (thickness 0.15)))
    )
    (pad 1 thru_hole oval (at 0 0) (size 2 2) (drill 1) (layers *.Cu *.Mask)
      (net 1 VCC))
    (pad 2 thru_hole oval (at 0 2.54) (size 2 2) (drill 1) (layers *.Cu *.Mask)
      (net 5 SCK))
    (pad 3 thru_hole oval (at 0 5.08) (size 2 2) (drill 1) (layers *.Cu *.Mask)
      (net 6 SDO))
    (pad 4 thru_hole oval (at 0 7.62) (size 2 2) (drill 1) (layers *.Cu *.Mask)
      (net 7 SDI))
    (pad 5 thru_hole oval (at 0 10.16) (size 2 2) (drill 1) (layers *.Cu *.Mask)
      (net 8 RST))
    (pad 6 thru_hole oval (at 0 12.7) (size 2 2) (drill 1) (layers *.Cu *.Mask)
      (net 2 GND))
    (model ${KISYS3DMOD}/Pin_Headers.3dshapes/Pin_Header_Straight_1x06_Pitch2.54mm.wrl
      (at (xyz 0 0 0))
      (scale (xyz 1 1 1))
      (rotate (xyz 0 0 0))
    )
  )

  (gr_line (start 137.16 105.41) (end 113.03 105.41) (layer Edge.Cuts) (width 0.15))
  (gr_line (start 137.16 128.27) (end 137.16 105.41) (layer Edge.Cuts) (width 0.15))
  (gr_line (start 113.03 128.27) (end 137.16 128.27) (layer Edge.Cuts) (width 0.15))
  (gr_line (start 113.03 105.41) (end 113.03 128.27) (layer Edge.Cuts) (width 0.15))

  (segment (start 118.07 117.816) (end 117.348 117.094) (width 0.762) (layer F.Cu) (net 1))
  (segment (start 118.11 120.65) (end 118.11 117.896) (width 0.762) (layer F.Cu) (net 1))
  (segment (start 130.495 110.49) (end 133.35 110.49) (width 0.762) (layer F.Cu) (net 1))
  (segment (start 118.11 117.896) (end 118.07 117.856) (width 0.762) (layer F.Cu) (net 1))
  (segment (start 118.07 117.856) (end 118.07 117.816) (width 0.762) (layer F.Cu) (net 1))
  (segment (start 117.348 117.094) (end 117.348 114.3) (width 0.762) (layer F.Cu) (net 1))
  (segment (start 117.348 114.3) (end 118.77 112.878) (width 0.762) (layer F.Cu) (net 1))
  (segment (start 118.77 112.878) (end 118.77 110.57) (width 0.762) (layer F.Cu) (net 1))
  (segment (start 125.73 107.95) (end 130.83 107.95) (width 0.762) (layer F.Cu) (net 1))
  (segment (start 120.015 107.95) (end 125.73 107.95) (width 0.762) (layer F.Cu) (net 1))
  (segment (start 130.495 110.49) (end 130.495 108.285) (width 0.762) (layer F.Cu) (net 1))
  (segment (start 130.495 108.285) (end 130.83 107.95) (width 0.762) (layer F.Cu) (net 1))
  (segment (start 120.015 107.95) (end 118.77 109.195) (width 0.762) (layer F.Cu) (net 1))
  (segment (start 118.77 109.195) (end 118.77 110.57) (width 0.762) (layer F.Cu) (net 1))
  (segment (start 130.81 121.92) (end 128.875 121.92) (width 0.635) (layer F.Cu) (net 3))
  (segment (start 128.875 121.92) (end 128.245 121.29) (width 0.635) (layer F.Cu) (net 3))
  (segment (start 121.945 121.29) (end 126.36 121.29) (width 0.635) (layer F.Cu) (net 3))
  (segment (start 120.965 113.03) (end 125.73 113.03) (width 0.635) (layer F.Cu) (net 3))
  (segment (start 125.73 113.03) (end 126.365 113.665) (width 0.635) (layer F.Cu) (net 3))
  (segment (start 128.24 121.285) (end 128.245 121.29) (width 0.635) (layer F.Cu) (net 3))
  (segment (start 126.365 113.665) (end 126.365 121.285) (width 0.635) (layer F.Cu) (net 3))
  (segment (start 126.365 121.285) (end 128.24 121.285) (width 0.635) (layer F.Cu) (net 3))
  (segment (start 120.965 115.57) (end 118.77 115.57) (width 0.635) (layer F.Cu) (net 4))
  (segment (start 133.35 113.03) (end 130.495 113.03) (width 0.635) (layer F.Cu) (net 5))
  (segment (start 133.35 115.57) (end 130.495 115.57) (width 0.635) (layer F.Cu) (net 6))
  (segment (start 130.495 118.11) (end 133.35 118.11) (width 0.635) (layer F.Cu) (net 7))
  (segment (start 120.965 110.49) (end 121.595 111.12) (width 0.635) (layer F.Cu) (net 8))
  (segment (start 121.595 111.12) (end 126.36 111.12) (width 0.635) (layer F.Cu) (net 8))
  (segment (start 132.715 120.65) (end 133.35 120.65) (width 0.635) (layer F.Cu) (net 8))
  (segment (start 126.36 111.12) (end 128.016 112.776) (width 0.635) (layer F.Cu) (net 8))
  (segment (start 128.016 112.776) (end 128.016 119.126) (width 0.635) (layer F.Cu) (net 8))
  (segment (start 128.016 119.126) (end 128.905 120.015) (width 0.635) (layer F.Cu) (net 8))
  (segment (start 128.905 120.015) (end 132.08 120.015) (width 0.635) (layer F.Cu) (net 8))
  (segment (start 132.08 120.015) (end 132.715 120.65) (width 0.635) (layer F.Cu) (net 8))

  (zone (net 2) (net_name GND) (layer F.Cu) (tstamp 0) (hatch edge 0.508)
    (connect_pads (clearance 0.508))
    (min_thickness 0.381)
    (fill yes (arc_segments 32) (thermal_gap 0.508) (thermal_bridge_width 0.762))
    (polygon
      (pts
        (xy 111.76 104.14) (xy 111.76 129.54) (xy 138.43 129.54) (xy 138.43 104.14)
      )
    )
    (filled_polygon
      (pts
        (xy 136.3865 127.4965) (xy 113.8035 127.4965) (xy 113.8035 124.452991) (xy 114.1215 124.452991) (xy 114.1215 124.467009)
        (xy 114.149086 124.748357) (xy 114.230795 125.018989) (xy 114.363514 125.268597) (xy 114.542187 125.487672) (xy 114.760009 125.66787)
        (xy 115.008684 125.802328) (xy 115.278739 125.885924) (xy 115.559888 125.915474) (xy 115.841422 125.889852) (xy 116.112618 125.810035)
        (xy 116.363145 125.679062) (xy 116.583462 125.501923) (xy 116.765177 125.285364) (xy 116.840032 125.149204) (xy 116.903514 125.268597)
        (xy 117.082187 125.487672) (xy 117.300009 125.66787) (xy 117.548684 125.802328) (xy 117.818739 125.885924) (xy 118.099888 125.915474)
        (xy 118.381422 125.889852) (xy 118.652618 125.810035) (xy 118.903145 125.679062) (xy 119.123462 125.501923) (xy 119.16273 125.455125)
        (xy 120.3965 125.455125) (xy 120.3965 125.658796) (xy 120.423343 125.793745) (xy 120.475997 125.920864) (xy 120.55244 126.035268)
        (xy 120.649732 126.132561) (xy 120.764136 126.209003) (xy 120.891255 126.261657) (xy 121.026204 126.2885) (xy 121.579875 126.2885)
        (xy 121.7545 126.113875) (xy 121.7545 125.2805) (xy 122.1355 125.2805) (xy 122.1355 126.113875) (xy 122.310125 126.2885)
        (xy 122.863796 126.2885) (xy 122.998745 126.261657) (xy 123.125864 126.209003) (xy 123.240268 126.132561) (xy 123.33756 126.035268)
        (xy 123.414003 125.920864) (xy 123.466657 125.793745) (xy 123.4935 125.658796) (xy 123.4935 125.455125) (xy 126.6965 125.455125)
        (xy 126.6965 125.658796) (xy 126.723343 125.793745) (xy 126.775997 125.920864) (xy 126.85244 126.035268) (xy 126.949732 126.132561)
        (xy 127.064136 126.209003) (xy 127.191255 126.261657) (xy 127.326204 126.2885) (xy 127.879875 126.2885) (xy 128.0545 126.113875)
        (xy 128.0545 125.2805) (xy 126.871125 125.2805) (xy 126.6965 125.455125) (xy 123.4935 125.455125) (xy 123.318875 125.2805)
        (xy 122.1355 125.2805) (xy 121.7545 125.2805) (xy 120.571125 125.2805) (xy 120.3965 125.455125) (xy 119.16273 125.455125)
        (xy 119.305177 125.285364) (xy 119.441368 125.037634) (xy 119.526847 124.768169) (xy 119.554548 124.521204) (xy 120.3965 124.521204)
        (xy 120.3965 124.724875) (xy 120.571125 124.8995) (xy 121.7545 124.8995) (xy 121.7545 124.066125) (xy 122.1355 124.066125)
        (xy 122.1355 124.8995) (xy 123.318875 124.8995) (xy 123.4935 124.724875) (xy 123.4935 124.521204) (xy 126.6965 124.521204)
        (xy 126.6965 124.724875) (xy 126.871125 124.8995) (xy 128.0545 124.8995) (xy 128.0545 124.066125) (xy 127.879875 123.8915)
        (xy 127.326204 123.8915) (xy 127.191255 123.918343) (xy 127.064136 123.970997) (xy 126.949732 124.047439) (xy 126.85244 124.144732)
        (xy 126.775997 124.259136) (xy 126.723343 124.386255) (xy 126.6965 124.521204) (xy 123.4935 124.521204) (xy 123.466657 124.386255)
        (xy 123.414003 124.259136) (xy 123.33756 124.144732) (xy 123.240268 124.047439) (xy 123.125864 123.970997) (xy 122.998745 123.918343)
        (xy 122.863796 123.8915) (xy 122.310125 123.8915) (xy 122.1355 124.066125) (xy 121.7545 124.066125) (xy 121.579875 123.8915)
        (xy 121.026204 123.8915) (xy 120.891255 123.918343) (xy 120.764136 123.970997) (xy 120.649732 124.047439) (xy 120.55244 124.144732)
        (xy 120.475997 124.259136) (xy 120.423343 124.386255) (xy 120.3965 124.521204) (xy 119.554548 124.521204) (xy 119.558359 124.487233)
        (xy 119.5585 124.467009) (xy 119.5585 124.452991) (xy 119.530914 124.171643) (xy 119.449205 123.901011) (xy 119.316486 123.651403)
        (xy 119.137813 123.432328) (xy 118.919991 123.25213) (xy 118.671316 123.117672) (xy 118.401261 123.034076) (xy 118.120112 123.004526)
        (xy 117.838578 123.030148) (xy 117.567382 123.109965) (xy 117.316855 123.240938) (xy 117.096538 123.418077) (xy 116.914823 123.634636)
        (xy 116.839968 123.770796) (xy 116.776486 123.651403) (xy 116.597813 123.432328) (xy 116.379991 123.25213) (xy 116.131316 123.117672)
        (xy 115.861261 123.034076) (xy 115.580112 123.004526) (xy 115.298578 123.030148) (xy 115.027382 123.109965) (xy 114.776855 123.240938)
        (xy 114.556538 123.418077) (xy 114.374823 123.634636) (xy 114.238632 123.882366) (xy 114.153153 124.151831) (xy 114.121641 124.432767)
        (xy 114.1215 124.452991) (xy 113.8035 124.452991) (xy 113.8035 121.102183) (xy 113.93279 121.102183) (xy 114.052465 121.412898)
        (xy 114.230458 121.694296) (xy 114.459929 121.935562) (xy 114.732059 122.127424) (xy 115.036391 122.26251) (xy 115.117818 122.287203)
        (xy 115.3795 122.161921) (xy 115.3795 120.8405) (xy 114.056835 120.8405) (xy 113.93279 121.102183) (xy 113.8035 121.102183)
        (xy 113.8035 120.197817) (xy 113.93279 120.197817) (xy 114.056835 120.4595) (xy 115.3795 120.4595) (xy 115.3795 119.138079)
        (xy 115.289422 119.094953) (xy 115.3795 119.004875) (xy 115.3795 118.0465) (xy 114.296125 118.0465) (xy 114.1215 118.221125)
        (xy 114.1215 118.549796) (xy 114.148343 118.684745) (xy 114.200997 118.811864) (xy 114.27744 118.926268) (xy 114.374732 119.023561)
        (xy 114.489136 119.100003) (xy 114.616255 119.152657) (xy 114.728612 119.175006) (xy 114.459929 119.364438) (xy 114.230458 119.605704)
        (xy 114.052465 119.887102) (xy 113.93279 120.197817) (xy 113.8035 120.197817) (xy 113.8035 117.162204) (xy 114.1215 117.162204)
        (xy 114.1215 117.490875) (xy 114.296125 117.6655) (xy 115.3795 117.6655) (xy 115.3795 115.7605) (xy 114.546125 115.7605)
        (xy 114.3715 115.935125) (xy 114.3715 116.438796) (xy 114.398343 116.573745) (xy 114.430434 116.65122) (xy 114.374732 116.688439)
        (xy 114.27744 116.785732) (xy 114.200997 116.900136) (xy 114.148343 117.027255) (xy 114.1215 117.162204) (xy 113.8035 117.162204)
        (xy 113.8035 114.701204) (xy 114.3715 114.701204) (xy 114.3715 115.204875) (xy 114.546125 115.3795) (xy 115.3795 115.3795)
        (xy 115.3795 114.246125) (xy 115.7605 114.246125) (xy 115.7605 115.3795) (xy 115.7805 115.3795) (xy 115.7805 115.7605)
        (xy 115.7605 115.7605) (xy 115.7605 117.6655) (xy 115.7805 117.6655) (xy 115.7805 118.0465) (xy 115.7605 118.0465)
        (xy 115.7605 119.004875) (xy 115.850578 119.094953) (xy 115.7605 119.138079) (xy 115.7605 120.4595) (xy 115.7805 120.4595)
        (xy 115.7805 120.8405) (xy 115.7605 120.8405) (xy 115.7605 122.161921) (xy 116.022182 122.287203) (xy 116.103609 122.26251)
        (xy 116.407941 122.127424) (xy 116.680071 121.935562) (xy 116.836408 121.771189) (xy 116.904794 121.855039) (xy 117.160211 122.066338)
        (xy 117.451805 122.224003) (xy 117.768469 122.322027) (xy 118.098142 122.356677) (xy 118.428267 122.326633) (xy 118.746269 122.23304)
        (xy 119.040036 122.079462) (xy 119.298378 121.87175) (xy 119.511455 121.617814) (xy 119.671151 121.327328) (xy 119.771384 121.011356)
        (xy 119.808334 120.681933) (xy 119.8085 120.658218) (xy 119.8085 120.641782) (xy 119.776152 120.311875) (xy 119.680341 119.994534)
        (xy 119.524717 119.701846) (xy 119.315206 119.444961) (xy 119.1895 119.340968) (xy 119.1895 119.069718) (xy 119.2665 119.018979)
        (xy 119.2665 119.068796) (xy 119.293343 119.203745) (xy 119.345997 119.330864) (xy 119.42244 119.445268) (xy 119.519732 119.542561)
        (xy 119.634136 119.619003) (xy 119.761255 119.671657) (xy 119.896204 119.6985) (xy 120.599875 119.6985) (xy 120.7745 119.523875)
        (xy 120.7745 118.3005) (xy 121.1555 118.3005) (xy 121.1555 119.523875) (xy 121.330125 119.6985) (xy 122.033796 119.6985)
        (xy 122.168745 119.671657) (xy 122.295864 119.619003) (xy 122.410268 119.542561) (xy 122.50756 119.445268) (xy 122.584003 119.330864)
        (xy 122.636657 119.203745) (xy 122.6635 119.068796) (xy 122.6635 118.475125) (xy 122.488875 118.3005) (xy 121.1555 118.3005)
        (xy 120.7745 118.3005) (xy 120.7545 118.3005) (xy 120.7545 117.9195) (xy 120.7745 117.9195) (xy 120.7745 117.8995)
        (xy 121.1555 117.8995) (xy 121.1555 117.9195) (xy 122.488875 117.9195) (xy 122.6635 117.744875) (xy 122.6635 117.151204)
        (xy 122.636657 117.016255) (xy 122.584003 116.889136) (xy 122.55249 116.841974) (xy 122.557927 116.835595) (xy 122.639091 116.655539)
        (xy 122.666879 116.46) (xy 122.666879 114.68) (xy 122.658009 114.568767) (xy 122.599583 114.380103) (xy 122.550014 114.304879)
        (xy 122.557927 114.295595) (xy 122.639091 114.115539) (xy 122.648973 114.046) (xy 125.30916 114.046) (xy 125.349 114.085841)
        (xy 125.349 120.274) (xy 123.260854 120.274) (xy 123.170595 120.197073) (xy 122.990539 120.115909) (xy 122.795 120.088121)
        (xy 121.095 120.088121) (xy 120.983767 120.096991) (xy 120.795103 120.155417) (xy 120.630185 120.26409) (xy 120.502073 120.414405)
        (xy 120.420909 120.594461) (xy 120.393121 120.79) (xy 120.393121 121.79) (xy 120.401991 121.901233) (xy 120.460417 122.089897)
        (xy 120.56909 122.254815) (xy 120.719405 122.382927) (xy 120.899461 122.464091) (xy 121.095 122.491879) (xy 122.795 122.491879)
        (xy 122.906233 122.483009) (xy 123.094897 122.424583) (xy 123.259815 122.31591) (xy 123.268261 122.306) (xy 126.36 122.306)
        (xy 126.410993 122.301) (xy 126.923279 122.301) (xy 127.019405 122.382927) (xy 127.199461 122.464091) (xy 127.395 122.491879)
        (xy 128.010038 122.491879) (xy 128.15658 122.638421) (xy 128.229116 122.698002) (xy 128.300994 122.758315) (xy 128.305675 122.760888)
        (xy 128.309804 122.76428) (xy 128.392512 122.808628) (xy 128.474755 122.853842) (xy 128.479848 122.855458) (xy 128.484556 122.857982)
        (xy 128.574314 122.885424) (xy 128.663762 122.913798) (xy 128.66907 122.914393) (xy 128.674181 122.915956) (xy 128.767576 122.925443)
        (xy 128.860814 122.935901) (xy 128.871255 122.935974) (xy 128.871453 122.935994) (xy 128.871638 122.935977) (xy 128.875 122.936)
        (xy 129.53992 122.936) (xy 129.550417 122.969897) (xy 129.65909 123.134815) (xy 129.698645 123.168527) (xy 129.642439 123.224732)
        (xy 129.565997 123.339136) (xy 129.513343 123.466255) (xy 129.4865 123.601204) (xy 129.4865 124.011513) (xy 129.425864 123.970997)
        (xy 129.298745 123.918343) (xy 129.163796 123.8915) (xy 128.610125 123.8915) (xy 128.4355 124.066125) (xy 128.4355 124.8995)
        (xy 128.4555 124.8995) (xy 128.4555 125.2805) (xy 128.4355 125.2805) (xy 128.4355 126.113875) (xy 128.610125 126.2885)
        (xy 129.163796 126.2885) (xy 129.298745 126.261657) (xy 129.425864 126.209003) (xy 129.540268 126.132561) (xy 129.63756 126.035268)
        (xy 129.714003 125.920864) (xy 129.766657 125.793745) (xy 129.777752 125.737965) (xy 129.854136 125.789003) (xy 129.981255 125.841657)
        (xy 130.116204 125.8685) (xy 130.444875 125.8685) (xy 130.6195 125.693875) (xy 130.6195 124.6105) (xy 131.0005 124.6105)
        (xy 131.0005 125.693875) (xy 131.175125 125.8685) (xy 131.503796 125.8685) (xy 131.638745 125.841657) (xy 131.765864 125.789003)
        (xy 131.880268 125.71256) (xy 131.977561 125.615268) (xy 132.054003 125.500864) (xy 132.106657 125.373745) (xy 132.1335 125.238796)
        (xy 132.1335 124.785125) (xy 131.958875 124.6105) (xy 131.0005 124.6105) (xy 130.6195 124.6105) (xy 130.5995 124.6105)
        (xy 130.5995 124.2295) (xy 130.6195 124.2295) (xy 130.6195 124.2095) (xy 131.0005 124.2095) (xy 131.0005 124.2295)
        (xy 131.958875 124.2295) (xy 131.991606 124.196769) (xy 132.064438 124.300071) (xy 132.305704 124.529542) (xy 132.587102 124.707535)
        (xy 132.897817 124.82721) (xy 133.1595 124.703165) (xy 133.1595 123.3805) (xy 133.5405 123.3805) (xy 133.5405 124.703165)
        (xy 133.802183 124.82721) (xy 134.112898 124.707535) (xy 134.394296 124.529542) (xy 134.635562 124.300071) (xy 134.827424 124.027941)
        (xy 134.96251 123.723609) (xy 134.987203 123.642182) (xy 134.861921 123.3805) (xy 133.5405 123.3805) (xy 133.1595 123.3805)
        (xy 133.1395 123.3805) (xy 133.1395 122.9995) (xy 133.1595 122.9995) (xy 133.1595 122.9795) (xy 133.5405 122.9795)
        (xy 133.5405 122.9995) (xy 134.861921 122.9995) (xy 134.987203 122.737818) (xy 134.96251 122.656391) (xy 134.827424 122.352059)
        (xy 134.635562 122.079929) (xy 134.471189 121.923592) (xy 134.555039 121.855206) (xy 134.766338 121.599789) (xy 134.924003 121.308195)
        (xy 135.022027 120.991531) (xy 135.056677 120.661858) (xy 135.026633 120.331733) (xy 134.93304 120.013731) (xy 134.779462 119.719964)
        (xy 134.57175 119.461622) (xy 134.475027 119.380462) (xy 134.555039 119.315206) (xy 134.766338 119.059789) (xy 134.924003 118.768195)
        (xy 135.022027 118.451531) (xy 135.056677 118.121858) (xy 135.026633 117.791733) (xy 134.93304 117.473731) (xy 134.779462 117.179964)
        (xy 134.57175 116.921622) (xy 134.475027 116.840462) (xy 134.555039 116.775206) (xy 134.766338 116.519789) (xy 134.924003 116.228195)
        (xy 135.022027 115.911531) (xy 135.056677 115.581858) (xy 135.026633 115.251733) (xy 134.93304 114.933731) (xy 134.779462 114.639964)
        (xy 134.57175 114.381622) (xy 134.475027 114.300462) (xy 134.555039 114.235206) (xy 134.766338 113.979789) (xy 134.924003 113.688195)
        (xy 135.022027 113.371531) (xy 135.056677 113.041858) (xy 135.026633 112.711733) (xy 134.93304 112.393731) (xy 134.779462 112.099964)
        (xy 134.57175 111.841622) (xy 134.475027 111.760462) (xy 134.555039 111.695206) (xy 134.766338 111.439789) (xy 134.924003 111.148195)
        (xy 135.022027 110.831531) (xy 135.056677 110.501858) (xy 135.026633 110.171733) (xy 134.93304 109.853731) (xy 134.779462 109.559964)
        (xy 134.57175 109.301622) (xy 134.429029 109.181865) (xy 134.525268 109.117561) (xy 134.62256 109.020268) (xy 134.699003 108.905864)
        (xy 134.751657 108.778745) (xy 134.7785 108.643796) (xy 134.7785 108.315125) (xy 134.603875 108.1405) (xy 133.5205 108.1405)
        (xy 133.5205 108.1605) (xy 133.1395 108.1605) (xy 133.1395 108.1405) (xy 133.1195 108.1405) (xy 133.1195 107.7595)
        (xy 133.1395 107.7595) (xy 133.1395 106.801125) (xy 133.5205 106.801125) (xy 133.5205 107.7595) (xy 134.603875 107.7595)
        (xy 134.7785 107.584875) (xy 134.7785 107.256204) (xy 134.751657 107.121255) (xy 134.699003 106.994136) (xy 134.62256 106.879732)
        (xy 134.525268 106.782439) (xy 134.410864 106.705997) (xy 134.283745 106.653343) (xy 134.148796 106.6265) (xy 133.695125 106.6265)
        (xy 133.5205 106.801125) (xy 133.1395 106.801125) (xy 132.964875 106.6265) (xy 132.511204 106.6265) (xy 132.376255 106.653343)
        (xy 132.249136 106.705997) (xy 132.134732 106.782439) (xy 132.079498 106.837674) (xy 131.955595 106.732073) (xy 131.775539 106.650909)
        (xy 131.58 106.623121) (xy 130.08 106.623121) (xy 129.968767 106.631991) (xy 129.780103 106.690417) (xy 129.615185 106.79909)
        (xy 129.554323 106.8705) (xy 126.766656 106.8705) (xy 126.755595 106.861073) (xy 126.575539 106.779909) (xy 126.38 106.752121)
        (xy 125.08 106.752121) (xy 124.968767 106.760991) (xy 124.780103 106.819417) (xy 124.702581 106.8705) (xy 120.015 106.8705)
        (xy 119.915786 106.880228) (xy 119.816425 106.888921) (xy 119.810972 106.890505) (xy 119.805324 106.891059) (xy 119.70993 106.91986)
        (xy 119.614108 106.947699) (xy 119.609063 106.950314) (xy 119.603635 106.951953) (xy 119.515654 106.998733) (xy 119.427063 107.044655)
        (xy 119.422626 107.048197) (xy 119.417614 107.050862) (xy 119.340332 107.113891) (xy 119.26241 107.176095) (xy 119.254512 107.183884)
        (xy 119.254347 107.184018) (xy 119.254221 107.18417) (xy 119.251678 107.186678) (xy 118.006678 108.431678) (xy 117.943378 108.508741)
        (xy 117.87929 108.585118) (xy 117.876556 108.590092) (xy 117.872952 108.594479) (xy 117.825839 108.682344) (xy 117.777793 108.76974)
        (xy 117.776076 108.775153) (xy 117.773395 108.780153) (xy 117.744257 108.875461) (xy 117.71409 108.970559) (xy 117.713457 108.976203)
        (xy 117.711798 108.981629) (xy 117.701721 109.080825) (xy 117.690605 109.179928) (xy 117.690528 109.191018) (xy 117.690506 109.191232)
        (xy 117.690525 109.191432) (xy 117.6905 109.195) (xy 117.6905 109.378651) (xy 117.677073 109.394405) (xy 117.595909 109.574461)
        (xy 117.568121 109.77) (xy 117.568121 111.37) (xy 117.576991 111.481233) (xy 117.635417 111.669897) (xy 117.6905 111.753489)
        (xy 117.6905 112.430856) (xy 116.584678 113.536678) (xy 116.521378 113.613741) (xy 116.45729 113.690118) (xy 116.454556 113.695092)
        (xy 116.450952 113.699479) (xy 116.403839 113.787344) (xy 116.355793 113.87474) (xy 116.354076 113.880153) (xy 116.351395 113.885153)
        (xy 116.322257 113.980461) (xy 116.29209 114.075559) (xy 116.291457 114.081203) (xy 116.289798 114.086629) (xy 116.288008 114.104251)
        (xy 116.273745 114.098343) (xy 116.138796 114.0715) (xy 115.935125 114.0715) (xy 115.7605 114.246125) (xy 115.3795 114.246125)
        (xy 115.204875 114.0715) (xy 115.001204 114.0715) (xy 114.866255 114.098343) (xy 114.739136 114.150997) (xy 114.624732 114.22744)
        (xy 114.527439 114.324732) (xy 114.450997 114.439136) (xy 114.398343 114.566255) (xy 114.3715 114.701204) (xy 113.8035 114.701204)
        (xy 113.8035 109.77) (xy 114.368121 109.77) (xy 114.368121 111.37) (xy 114.376991 111.481233) (xy 114.435417 111.669897)
        (xy 114.54409 111.834815) (xy 114.694405 111.962927) (xy 114.874461 112.044091) (xy 115.07 112.071879) (xy 116.07 112.071879)
        (xy 116.181233 112.063009) (xy 116.369897 112.004583) (xy 116.534815 111.89591) (xy 116.662927 111.745595) (xy 116.744091 111.565539)
        (xy 116.771879 111.37) (xy 116.771879 109.77) (xy 116.763009 109.658767) (xy 116.704583 109.470103) (xy 116.59591 109.305185)
        (xy 116.445595 109.177073) (xy 116.265539 109.095909) (xy 116.07 109.068121) (xy 115.07 109.068121) (xy 114.958767 109.076991)
        (xy 114.770103 109.135417) (xy 114.605185 109.24409) (xy 114.477073 109.394405) (xy 114.395909 109.574461) (xy 114.368121 109.77)
        (xy 113.8035 109.77) (xy 113.8035 106.1835) (xy 136.3865 106.1835)
      )
    )
  )
)
